NAME : Tnm151.tsp
COMMENT : 151-city problem, points on edges of tetrahedron. n = 41  m = 10  (Hougardy + Zhong)
TYPE : TSP
DIMENSION : 151
EDGE_WEIGHT_TYPE : EUC_2D
BEST : 2293265
OPTIMUM : 1
NODE_COORD_SECTION
1 405000 8660
2 200000 346410
3 10000 0
4 400000 17321
5 195000 337750
6 20000 0
7 395000 25981
8 190000 329090
9 30000 0
10 390000 34641
11 185000 320429
12 40000 0
13 385000 43301
14 180000 311769
15 50000 0
16 380000 51962
17 175000 303109
18 60000 0
19 375000 60622
20 170000 294449
21 70000 0
22 370000 69282
23 165000 285788
24 80000 0
25 365000 77942
26 160000 277128
27 90000 0
28 360000 86603
29 155000 268468
30 100000 0
31 355000 95263
32 150000 259808
33 110000 0
34 350000 103923
35 145000 251147
36 120000 0
37 345000 112583
38 140000 242487
39 130000 0
40 340000 121244
41 135000 233827
42 140000 0
43 335000 129904
44 130000 225167
45 150000 0
46 330000 138564
47 125000 216506
48 160000 0
49 325000 147224
50 120000 207846
51 170000 0
52 320000 155885
53 115000 199186
54 180000 0
55 315000 164545
56 110000 190526
57 190000 0
58 310000 173205
59 105000 181865
60 200000 0
61 305000 181865
62 100000 173205
63 210000 0
64 300000 190526
65 95000 164545
66 220000 0
67 295000 199186
68 90000 155885
69 230000 0
70 290000 207846
71 85000 147224
72 240000 0
73 285000 216506
74 80000 138564
75 250000 0
76 280000 225167
77 75000 129904
78 260000 0
79 275000 233827
80 70000 121244
81 270000 0
82 270000 242487
83 65000 112583
84 280000 0
85 265000 251147
86 60000 103923
87 290000 0
88 260000 259808
89 55000 95263
90 300000 0
91 255000 268468
92 50000 86603
93 310000 0
94 250000 277128
95 45000 77942
96 320000 0
97 245000 285788
98 40000 69282
99 330000 0
100 240000 294449
101 35000 60622
102 340000 0
103 235000 303109
104 30000 51962
105 350000 0
106 230000 311769
107 25000 43301
108 360000 0
109 225000 320429
110 20000 34641
111 370000 0
112 220000 329090
113 15000 25981
114 380000 0
115 215000 337750
116 10000 17321
117 390000 0
118 210000 346410
119 5000 8660
120 400000 0
121 205000 355070
122 0 0
123 410000 0
124 20500 11836
125 389500 11836
126 205000 331399
127 41000 23671
128 369000 23671
129 205000 307728
130 61500 35507
131 348500 35507
132 205000 284056
133 82000 47343
134 328000 47343
135 205000 260385
136 102500 59178
137 307500 59178
138 205000 236714
139 123000 71014
140 287000 71014
141 205000 213042
142 143500 82850
143 266500 82850
144 205000 189371
145 164000 94685
146 246000 94685
147 205000 165700
148 184500 106521
149 225500 106521
150 205000 142028
151 205000 118357
EOF
