NAME : Tnm400.tsp
COMMENT : 400-city problem, points on edges of tetrahedron. n = 116  m = 18  (Hougardy + Zhong)
TYPE : TSP
DIMENSION : 400
EDGE_WEIGHT_TYPE : EUC_2D
BEST : 6873898
OPTIMUM : 0
NODE_COORD_SECTION
1 1155000 8660
2 575000 995929
3 10000 0
4 1150000 17321
5 570000 987269
6 20000 0
7 1145000 25981
8 565000 978609
9 30000 0
10 1140000 34641
11 560000 969948
12 40000 0
13 1135000 43301
14 555000 961288
15 50000 0
16 1130000 51962
17 550000 952628
18 60000 0
19 1125000 60622
20 545000 943968
21 70000 0
22 1120000 69282
23 540000 935307
24 80000 0
25 1115000 77942
26 535000 926647
27 90000 0
28 1110000 86603
29 530000 917987
30 100000 0
31 1105000 95263
32 525000 909327
33 110000 0
34 1100000 103923
35 520000 900666
36 120000 0
37 1095000 112583
38 515000 892006
39 130000 0
40 1090000 121244
41 510000 883346
42 140000 0
43 1085000 129904
44 505000 874686
45 150000 0
46 1080000 138564
47 500000 866025
48 160000 0
49 1075000 147224
50 495000 857365
51 170000 0
52 1070000 155885
53 490000 848705
54 180000 0
55 1065000 164545
56 485000 840045
57 190000 0
58 1060000 173205
59 480000 831384
60 200000 0
61 1055000 181865
62 475000 822724
63 210000 0
64 1050000 190526
65 470000 814064
66 220000 0
67 1045000 199186
68 465000 805404
69 230000 0
70 1040000 207846
71 460000 796743
72 240000 0
73 1035000 216506
74 455000 788083
75 250000 0
76 1030000 225167
77 450000 779423
78 260000 0
79 1025000 233827
80 445000 770763
81 270000 0
82 1020000 242487
83 440000 762102
84 280000 0
85 1015000 251147
86 435000 753442
87 290000 0
88 1010000 259808
89 430000 744782
90 300000 0
91 1005000 268468
92 425000 736122
93 310000 0
94 1000000 277128
95 420000 727461
96 320000 0
97 995000 285788
98 415000 718801
99 330000 0
100 990000 294449
101 410000 710141
102 340000 0
103 985000 303109
104 405000 701481
105 350000 0
106 980000 311769
107 400000 692820
108 360000 0
109 975000 320429
110 395000 684160
111 370000 0
112 970000 329090
113 390000 675500
114 380000 0
115 965000 337750
116 385000 666840
117 390000 0
118 960000 346410
119 380000 658179
120 400000 0
121 955000 355070
122 375000 649519
123 410000 0
124 950000 363731
125 370000 640859
126 420000 0
127 945000 372391
128 365000 632199
129 430000 0
130 940000 381051
131 360000 623538
132 440000 0
133 935000 389711
134 355000 614878
135 450000 0
136 930000 398372
137 350000 606218
138 460000 0
139 925000 407032
140 345000 597558
141 470000 0
142 920000 415692
143 340000 588897
144 480000 0
145 915000 424352
146 335000 580237
147 490000 0
148 910000 433013
149 330000 571577
150 500000 0
151 905000 441673
152 325000 562917
153 510000 0
154 900000 450333
155 320000 554256
156 520000 0
157 895000 458993
158 315000 545596
159 530000 0
160 890000 467654
161 310000 536936
162 540000 0
163 885000 476314
164 305000 528275
165 550000 0
166 880000 484974
167 300000 519615
168 560000 0
169 875000 493634
170 295000 510955
171 570000 0
172 870000 502295
173 290000 502295
174 580000 0
175 865000 510955
176 285000 493634
177 590000 0
178 860000 519615
179 280000 484974
180 600000 0
181 855000 528275
182 275000 476314
183 610000 0
184 850000 536936
185 270000 467654
186 620000 0
187 845000 545596
188 265000 458993
189 630000 0
190 840000 554256
191 260000 450333
192 640000 0
193 835000 562917
194 255000 441673
195 650000 0
196 830000 571577
197 250000 433013
198 660000 0
199 825000 580237
200 245000 424352
201 670000 0
202 820000 588897
203 240000 415692
204 680000 0
205 815000 597558
206 235000 407032
207 690000 0
208 810000 606218
209 230000 398372
210 700000 0
211 805000 614878
212 225000 389711
213 710000 0
214 800000 623538
215 220000 381051
216 720000 0
217 795000 632199
218 215000 372391
219 730000 0
220 790000 640859
221 210000 363731
222 740000 0
223 785000 649519
224 205000 355070
225 750000 0
226 780000 658179
227 200000 346410
228 760000 0
229 775000 666840
230 195000 337750
231 770000 0
232 770000 675500
233 190000 329090
234 780000 0
235 765000 684160
236 185000 320429
237 790000 0
238 760000 692820
239 180000 311769
240 800000 0
241 755000 701481
242 175000 303109
243 810000 0
244 750000 710141
245 170000 294449
246 820000 0
247 745000 718801
248 165000 285788
249 830000 0
250 740000 727461
251 160000 277128
252 840000 0
253 735000 736122
254 155000 268468
255 850000 0
256 730000 744782
257 150000 259808
258 860000 0
259 725000 753442
260 145000 251147
261 870000 0
262 720000 762102
263 140000 242487
264 880000 0
265 715000 770763
266 135000 233827
267 890000 0
268 710000 779423
269 130000 225167
270 900000 0
271 705000 788083
272 125000 216506
273 910000 0
274 700000 796743
275 120000 207846
276 920000 0
277 695000 805404
278 115000 199186
279 930000 0
280 690000 814064
281 110000 190526
282 940000 0
283 685000 822724
284 105000 181865
285 950000 0
286 680000 831384
287 100000 173205
288 960000 0
289 675000 840045
290 95000 164545
291 970000 0
292 670000 848705
293 90000 155885
294 980000 0
295 665000 857365
296 85000 147224
297 990000 0
298 660000 866025
299 80000 138564
300 1000000 0
301 655000 874686
302 75000 129904
303 1010000 0
304 650000 883346
305 70000 121244
306 1020000 0
307 645000 892006
308 65000 112583
309 1030000 0
310 640000 900666
311 60000 103923
312 1040000 0
313 635000 909327
314 55000 95263
315 1050000 0
316 630000 917987
317 50000 86603
318 1060000 0
319 625000 926647
320 45000 77942
321 1070000 0
322 620000 935307
323 40000 69282
324 1080000 0
325 615000 943968
326 35000 60622
327 1090000 0
328 610000 952628
329 30000 51962
330 1100000 0
331 605000 961288
332 25000 43301
333 1110000 0
334 600000 969948
335 20000 34641
336 1120000 0
337 595000 978609
338 15000 25981
339 1130000 0
340 590000 987269
341 10000 17321
342 1140000 0
343 585000 995929
344 5000 8660
345 1150000 0
346 580000 1004589
347 0 0
348 1160000 0
349 32222 18604
350 1127778 18604
351 580000 967382
352 64444 37207
353 1095556 37207
354 580000 930175
355 96667 55811
356 1063333 55811
357 580000 892968
358 128889 74414
359 1031111 74414
360 580000 855761
361 161111 93018
362 998889 93018
363 580000 818554
364 193333 111621
365 966667 111621
366 580000 781347
367 225556 130225
368 934444 130225
369 580000 744140
370 257778 148828
371 902222 148828
372 580000 706933
373 290000 167432
374 870000 167432
375 580000 669726
376 322222 186035
377 837778 186035
378 580000 632519
379 354444 204639
380 805556 204639
381 580000 595312
382 386667 223242
383 773333 223242
384 580000 558105
385 418889 241846
386 741111 241846
387 580000 520898
388 451111 260449
389 708889 260449
390 580000 483691
391 483333 279053
392 676667 279053
393 580000 446484
394 515556 297656
395 644444 297656
396 580000 409277
397 547778 316260
398 612222 316260
399 580000 372070
400 580000 334863
EOF
